Individual1
…
Question 6:

days_week <- readxl::read_xlsx("./days_week.xlsx")
accident_sex <- join_state_person %>% 
  group_by(DAY_WEEK, HOUR, SEX) %>% 
  summarize(total = sum(DAY_WEEK, HOUR, SEX)) %>% 
  filter((SEX == 1 | SEX == 2) & HOUR != 99) %>% 
  mutate(SEX = ifelse(SEX == 1, 'M', 'F'))

## `summarise()` regrouping output by 'DAY_WEEK', 'HOUR' (override with `.groups` argument)

accident_sex <- left_join(accident_sex, days_week, by=c("DAY_WEEK" = "Code"))
accident_sex

## # A tibble: 336 x 5
## # Groups:   DAY_WEEK, HOUR [168]
##    DAY_WEEK  HOUR SEX   total Day_Week
##       <dbl> <int> <chr> <int> <chr>   
##  1        1     0 M       976 Sunday  
##  2        1     0 F       663 Sunday  
##  3        1     1 M      1446 Sunday  
##  4        1     1 F       800 Sunday  
##  5        1     2 M      2140 Sunday  
##  6        1     2 F      1190 Sunday  
##  7        1     3 M      1880 Sunday  
##  8        1     3 F       888 Sunday  
##  9        1     4 M      1872 Sunday  
## 10        1     4 F       553 Sunday  
## # ... with 326 more rows
…
